<?xml version="1.0" encoding="UTF-8"?>
<svg width="255.8" height="421.68" version="1.1" viewBox="0 0 67.68 111.56" xmlns="http://www.w3.org/2000/svg">
 <g transform="translate(-17.73,-67.322)" fill="#fff" stroke="#000" stroke-width=".46929">
  <path d="m23.35 67.558 0.21976 7.0324v6.1534l0.21976 5.0545-0.21976 4.2854-0.21976 2.3075-0.76917 4.1755-0.32964 3.9557-1.2087 4.5052-1.3186 3.8458-1.0988 4.7249-0.65929 4.3952 0.21976 3.6261 0.54941 5.2743 0.43952 3.9557 0.87905 4.615 0.54941 4.3952 1.0988 6.5929 0.21976 3.9557 0.54941 4.615 0.32964 4.0656 0.10988 2.3075-0.76917 1.6482 0.16482 1.0439 0.60435 0.60434-0.32964 0.5494h-2.0877l-1.0988 0.54942-0.5494 1.2087 0.43952 1.2087 0.98893 1.2087 0.65929 0.98894 0.43952 1.2087 0.10988 0.98892 0.21976 1.868 0.87905 1.3186 0.87905 1.2087 1.2087 1.0988 1.868 0.21975 1.4285 0.21977 1.6482-0.54941 1.2087-0.76916 0.98893-1.3186 0.43952-1.5383-0.21976-1.7581-0.21976-1.868 0.10988-2.3075 0.21976-2.3075 1.3186-3.5162 0.43952-1.868-0.21976-1.0988-0.65929-1.2087 0.21976-2.1976 0.43952-2.747 0.54941-2.9668 0.54941-3.1866 0.87905-3.4063 0.43953-3.2964 0.76917-3.5162 0.54941-4.1755 0.54941-3.8458 0.54941-3.2964 0.32964-1.9778-0.21976-2.1976 0.21976-2.5273 0.32964-2.9668 0.54941-2.9668 0.76917-4.2854 0.87905-2.9668 1.0988-2.5273 1.3186-2.8569 0.76917-2.9668 0.65929-2.9668 0.10988-3.1866 0.32964-2.9668v-2.3075l0.54941-2.9668 0.43952-3.5162 0.54941-3.1866 0.65929-3.4063 0.87905-2.9668 1.0988-2.1976z"/>
  <path d="m25.328 157 0.43953 2.0877 0.21976 1.0988-0.10988 1.0988"/>
  <path d="m31.262 158.76v2.1976"/>
  <path d="m79.79 67.666-0.21976 7.0324v6.1533l-0.21977 5.0545 0.21977 4.2854 0.21976 2.3075 0.76916 4.1755 0.32965 3.9557 1.2087 4.5051 1.3186 3.8458 1.0988 4.7249 0.65928 4.3952-0.21976 3.6261-0.5494 5.2743-0.43952 3.9557-0.87904 4.615-0.5494 4.3952-1.0988 6.5929-0.21976 3.9557-0.5494 4.615-0.32964 4.0656-0.10988 2.3075 0.76916 1.6482-0.16482 1.0439-0.60434 0.60435 0.32964 0.54941h2.0877l1.0988 0.5494 0.5494 1.2087-0.43952 1.2087-0.98892 1.2087-0.65928 0.98893-0.43953 1.2087-0.10988 0.98893-0.21976 1.868-0.87904 1.3186-0.87904 1.2087-1.2087 1.0988-1.868 0.21977-1.4285 0.21976-1.6482-0.54942-1.2087-0.76916-0.98893-1.3186-0.43952-1.5383 0.21976-1.7581 0.21976-1.868-0.10988-2.3075-0.21976-2.3075-1.3186-3.5162-0.43952-1.868 0.21976-1.0988 0.65929-1.2087-0.21976-2.1976-0.43953-2.747-0.54941-2.9668-0.54941-3.1866-0.87905-3.4063-0.43953-3.2964-0.76917-3.5162-0.54941-4.1755-0.5494-3.8458-0.54941-3.2964-0.32964-1.9779 0.21976-2.1976-0.21976-2.5273-0.32964-2.9668-0.54941-2.9668-0.76917-4.2854-0.87905-2.9668-1.0988-2.5273-1.3186-2.8569-0.76917-2.9668-0.65929-2.9668-0.10988-3.1865-0.32965-2.9668v-2.3075l-0.5494-2.9668-0.43953-3.5162-0.54941-3.1866-0.65929-3.4063-0.87905-2.9668-1.0988-2.1976z"/>
  <path d="m77.812 157.11-0.43952 2.0877-0.21976 1.0988 0.10988 1.0988"/>
  <path d="m71.879 158.87v2.1976"/>
 </g>
</svg>
